Week 4 - Optional Lab
…
# 4 freq of cuts by color

diamonds %>% group_by(color,cut) %>% summarize(n())

`summarise()` has grouped output by 'color'. You can override using the
`.groups` argument.

# A tibble: 35 × 3
# Groups:   color [7]
   color cut       `n()`
   <ord> <ord>     <int>
 1 D     Fair        163
 2 D     Good        662
 3 D     Very Good  1513
 4 D     Premium    1603
 5 D     Ideal      2834
 6 E     Fair        224
 7 E     Good        933
 8 E     Very Good  2400
 9 E     Premium    2337
10 E     Ideal      3903
# ℹ 25 more rows
…
